{
  "host": "",
  "min_wait": 1000,
  "max_wait": 10000,
  "result_id_path": "/ajax/sports/all/42301",
  "task_list": [
    {
      "name": "home",
      "type": "GET",
      "path": "/",
      "data": {},
      "headers": {
        "Accept": "application/json, text/javascript, */*; q=0.01",
        "Accept-Encoding": "gzip, deflate",
        "Accept-Language": "en-US,en;q=0.9",
        "Cache-Control": "no-cache",
        "Connection": "keep-alive",
        "mobileProductClientType": "MOBILE_WEB_RB",
        "User-Agent": "Mozilla/5.0 (iPhone; CPU iPhone OS 10_3 like Mac OS X) AppleWebKit/602.1.50 (KHTML, like Gecko) CriOS/56.0.2924.75 Mobile/14E5239e Safari/602.1",
        "X-Requested-With": "XMLHttpRequest"
      }
    },
    {
      "name": "login",
      "type": "POST",
      "path": "/ajax/login",
      "data": "$require_user_credentials",
      "payload": {},
      "headers": {
        "Accept": "application/json, text/javascript, */*; q=0.01",
        "Accept-Encoding": "gzip, deflate",
        "Accept-Language": "en-US,en;q=0.9",
        "Cache-Control": "no-cache",
        "Connection": "keep-alive",
        "mobileProductClientType": "MOBILE_WEB_RB",
        "User-Agent": "Mozilla/5.0 (iPhone; CPU iPhone OS 10_3 like Mac OS X) AppleWebKit/602.1.50 (KHTML, like Gecko) CriOS/56.0.2924.75 Mobile/14E5239e Safari/602.1",
        "X-Requested-With": "XMLHttpRequest"
      }
    },
    {
      "name": "confirm_login_when_DE_user",
      "type": "GET",
      "path": "/ajax/layer/hostMessagePopup?international=1&save=0",
      "data": {},
      "headers": {
        "Accept": "application/json, text/javascript, */*; q=0.01",
        "Accept-Encoding": "gzip, deflate",
        "Accept-Language": "en-US,en;q=0.9",
        "Cache-Control": "no-cache",
        "Connection": "keep-alive",
        "mobileProductClientType": "MOBILE_WEB_RB",
        "User-Agent": "Mozilla/5.0 (iPhone; CPU iPhone OS 10_3 like Mac OS X) AppleWebKit/602.1.50 (KHTML, like Gecko) CriOS/56.0.2924.75 Mobile/14E5239e Safari/602.1",
        "X-Requested-With": "XMLHttpRequest"
      }
    },
    {
      "name": "all_sports",
      "type": "GET",
      "path": "/ajax/sports/all",
      "data": {},
      "headers": {
        "Accept": "application/json, text/javascript, */*; q=0.01",
        "Accept-Encoding": "gzip, deflate",
        "Accept-Language": "en-US,en;q=0.9",
        "Cache-Control": "no-cache",
        "Connection": "keep-alive",
        "mobileProductClientType": "MOBILE_WEB_RB",
        "User-Agent": "Mozilla/5.0 (iPhone; CPU iPhone OS 10_3 like Mac OS X) AppleWebKit/602.1.50 (KHTML, like Gecko) CriOS/56.0.2924.75 Mobile/14E5239e Safari/602.1",
        "X-Requested-With": "XMLHttpRequest"
      }
    },
    {
      "name": "all_sports_football_germany",
      "type": "GET",
      "path": "/ajax/sports/all/42301",
      "data": {},
      "headers": {
        "Accept": "application/json, text/javascript, */*; q=0.01",
        "Accept-Encoding": "gzip, deflate",
        "Accept-Language": "en-US,en;q=0.9",
        "Cache-Control": "no-cache",
        "Connection": "keep-alive",
        "mobileProductClientType": "MOBILE_WEB_RB",
        "User-Agent": "Mozilla/5.0 (iPhone; CPU iPhone OS 10_3 like Mac OS X) AppleWebKit/602.1.50 (KHTML, like Gecko) CriOS/56.0.2924.75 Mobile/14E5239e Safari/602.1",
        "X-Requested-With": "XMLHttpRequest"
      }
    },
    {
      "name": "select_odds",
      "type": "POST",
      "path": "/json/services/editor/toggleResults",
      "data": {},
      "payload": "$require_result_ids",
      "headers": {
        "Accept": "application/json, text/javascript, */*; q=0.01",
        "Accept-Encoding": "gzip, deflate",
        "Accept-Language": "en-US,en;q=0.9",
        "Cache-Control": "no-cache",
        "Connection": "keep-alive",
        "mobileProductClientType": "MOBILE_WEB_RB",
        "User-Agent": "Mozilla/5.0 (iPhone; CPU iPhone OS 10_3 like Mac OS X) AppleWebKit/602.1.50 (KHTML, like Gecko) CriOS/56.0.2924.75 Mobile/14E5239e Safari/602.1",
        "X-Requested-With": "XMLHttpRequest"
      }
    },
    {
      "name": "go_to_betslip",
      "type": "GET",
      "path": "/ajax/editor",
      "data": {},
      "headers": {
        "Accept": "application/json, text/javascript, */*; q=0.01",
        "Accept-Encoding": "gzip, deflate",
        "Accept-Language": "en-US,en;q=0.9",
        "Cache-Control": "no-cache",
        "Connection": "keep-alive",
        "mobileProductClientType": "MOBILE_WEB_RB",
        "User-Agent": "Mozilla/5.0 (iPhone; CPU iPhone OS 10_3 like Mac OS X) AppleWebKit/602.1.50 (KHTML, like Gecko) CriOS/56.0.2924.75 Mobile/14E5239e Safari/602.1",
        "X-Requested-With": "XMLHttpRequest"
      }
    },
    {
      "name": "place_bets",
      "type": "GET",
      "path": "/ajax/editor?reaction=DELIVER&realPageLoad=true",
      "data": {},
      "headers": {
        "Accept": "application/json, text/javascript, */*; q=0.01",
        "Accept-Encoding": "gzip, deflate",
        "Accept-Language": "en-US,en;q=0.9",
        "Cache-Control": "no-cache",
        "Connection": "keep-alive",
        "mobileProductClientType": "MOBILE_WEB_RB",
        "User-Agent": "Mozilla/5.0 (iPhone; CPU iPhone OS 10_3 like Mac OS X) AppleWebKit/602.1.50 (KHTML, like Gecko) CriOS/56.0.2924.75 Mobile/14E5239e Safari/602.1",
        "X-Requested-With": "XMLHttpRequest"
      }
    },
    {
      "name": "logout",
      "type": "GET",
      "path": "/ajax/logout",
      "data": {},
      "headers": {
        "Accept": "application/json, text/javascript, */*; q=0.01",
        "Accept-Encoding": "gzip, deflate",
        "Accept-Language": "en-US,en;q=0.9",
        "Cache-Control": "no-cache",
        "Connection": "keep-alive",
        "mobileProductClientType": "MOBILE_WEB_RB",
        "User-Agent": "Mozilla/5.0 (iPhone; CPU iPhone OS 10_3 like Mac OS X) AppleWebKit/602.1.50 (KHTML, like Gecko) CriOS/56.0.2924.75 Mobile/14E5239e Safari/602.1",
        "X-Requested-With": "XMLHttpRequest"
      }
    }
  ]
}